A D/File_Reading////
A D/MPI_2p5DSC////
A D/MPI_3DSC////
A D/MPI_Diagnostics////
A D/MPI_ECloud////
A D/MPI_FeedBack////
A D/MPI_PBunchDiag////
A D/MPI_PartsDistr////
A D/MPI_TrImp////
A D/MPI_TrImpWF////
A D/MPI_functions////
A D/RCS_Examples////
A D/TransSpaceCharge////
A D/ptc_test_0////
A D/ptc_test_1////
